<svg id="Calque_1" data-name="Calque 1" xmlns="http://www.w3.org/2000/svg" viewBox="0 0 1338.53 404.95">
  <title>crb-logo</title>
  <rect width="1338.53" height="404.95" fill="#fff"/>
  <polygon points="1257.54 161.98 1176.55 161.98 1176.55 80.99 1095.56 80.99 1095.56 161.98 1014.57 161.98 1014.57 242.97 1095.56 242.97 1095.56 323.96 1176.55 323.96 1176.55 242.97 1257.54 242.97 1257.54 161.98" fill="#e5231b"/>
  <rect x="466.47" y="197.28" width="31.76" height="13.3" fill="#0f0915"/>
  <g>
    <g>
      <path d="M133,187.27c-1-8.18-6.75-11.22-13.17-11.22-13.59,0-17.79,12.47-17.79,27.31,0,5,.15,25.42,17.58,25.42,11.92,0,13.16-8.66,13.61-11.8h23.4c-.12,25.42-26,27.54-36.57,27.54-7.87,0-21.81-1.35-30.82-10.78S78.75,211.35,78.75,202.9c0-11.1,2.6-22.25,10.23-30.91,8.3-9.46,19-11.92,30.81-11.92,13.17,0,23.17,3.15,29.58,9.9a24.7,24.7,0,0,1,6.74,17.3Z" fill="#0f0915"/>
      <path d="M168.64,161.75h37.55c14.62,0,20.11.91,25,5.86,2.49,2.46,5.63,7,5.63,15.75s-3.6,12.68-7.42,15.07A29.91,29.91,0,0,1,217,202.59V203c15.78.46,16.67,7.43,18.44,19.91.79,5.51,1.92,14.28,3.84,20H214.82c-1.33-5-1.89-11.14-2.66-18.34-1-9.77-1.35-13.38-11.5-13.38h-9.43V243H168.64Zm22.59,34.88h8.41c5,0,7.42,0,9.34-.68,5-1.58,6-6.65,6-9.23,0-10-8.75-10-15.3-10h-8.41Z" fill="#0f0915"/>
      <path d="M258.16,170.75c10.23-10.34,25.76-11.24,31.72-11.24,32.37,0,41.15,23.29,41.15,43.08,0,32.39-22.95,42.27-42.3,42.27-21.58,0-41.71-11.9-41.71-42.17,0-5.4.9-21.58,11.14-31.94M289,228.34c16.09,0,18.8-14.85,18.8-26.09s-2.71-17-5.18-20.59c-3.23-4.49-8.55-5.85-13.47-5.85-14.87,0-18.9,12.82-18.9,26.78,0,12.92,3.82,25.75,18.75,25.75" fill="#0f0915"/>
      <rect x="342.97" y="161.75" width="23.15" height="81.21" fill="#0f0915"/>
      <polygon points="400.87 242.96 374.57 242.96 405.38 200.66 376.82 161.75 405.84 161.75 421.7 186.94 438.11 161.75 463.95 161.75 435.07 200.22 465.43 242.96 436.63 242.96 418.88 214.05 400.87 242.96" fill="#0f0915"/>
      <path d="M512.11,161.75h37.57c14.65,0,20.15.91,25,5.86,2.46,2.46,5.6,7,5.6,15.75s-3.59,12.68-7.41,15.07a29.92,29.92,0,0,1-12.38,4.16V203c15.76.46,16.65,7.43,18.44,19.91.8,5.51,1.92,14.28,3.84,20H558.37c-1.37-5-1.92-11.14-2.71-18.34-1-9.77-1.36-13.38-11.46-13.38h-9.47V243H512.11Zm22.62,34.88h8.42c5,0,7.43,0,9.35-.68,5-1.58,6-6.65,6-9.23,0-10-8.78-10-15.31-10h-8.42Z" fill="#0f0915"/>
      <path d="M601.64,170.75c10.25-10.34,25.78-11.24,31.73-11.24,32.39,0,41.14,23.29,41.14,43.08,0,32.39-22.91,42.27-42.26,42.27-21.61,0-41.73-11.9-41.73-42.17,0-5.4.91-21.58,11.12-31.94m30.85,57.59c16.07,0,18.77-14.85,18.77-26.09s-2.7-17-5.19-20.59c-3.25-4.49-8.55-5.85-13.49-5.85-14.82,0-18.89,12.82-18.89,26.78,0,12.92,3.84,25.75,18.8,25.75" fill="#0f0915"/>
      <path d="M710.54,161.75V210c0,4.38.33,8.88,2.58,12.25,3,4.51,8.31,6.64,13.84,6.64,14.27,0,16.2-11.59,16.2-19.69V161.75h21.92v47c0,9-1.24,18.78-6.31,24.74-7.86,9.67-22.38,11.59-32.61,11.59-38.35,0-38.44-23.85-38.44-37.12l.09-46.23Z" fill="#0f0915"/>
      <path d="M836.5,186c-1.22-8.41-7.89-10.81-14.06-10.81-15.38,0-21,13.51-21,27.15,0,19,10.47,27,24.06,27A67.88,67.88,0,0,0,838,228V212.25H820.77V196.84H859.1v43.43a155.64,155.64,0,0,1-35.87,4.48c-8.78,0-20.9-1.33-30.36-8.43-10.35-7.77-15.08-20.57-15.08-33.52,0-9.77,2.94-23.4,12.14-32.26,9.68-9.13,23.86-10.8,33.63-10.8,12.74,0,23.17,2.7,29.73,9.44,5.81,6.18,5.94,12.93,6.05,16.86Z" fill="#0f0915"/>
      <polygon points="874.87 161.99 935.81 161.99 935.81 177.5 897.14 177.5 897.14 194.39 933.57 194.39 933.57 209.88 897.14 209.88 897.14 227.21 936.72 227.21 936.72 242.97 874.87 242.97 874.87 161.99" fill="#0f0915"/>
    </g>
    <g>
      <path d="M538.7,268H546v49.75c0,.85.17,4.19.31,6.21H539l-.15-6.21a10.87,10.87,0,0,1-3.5,4.12,17.61,17.61,0,0,1-9.63,2.86c-5.2,0-16.75-2.71-16.75-19.79,0-14.83,8.45-21.26,17.61-21.26,8.36,0,11.19,5,12.12,6.6ZM536,293.05a10.64,10.64,0,0,0-8.55-4c-10.73,0-10.73,13-10.73,15.62,0,6.9,1.8,14.89,10.73,14.89,11.49,0,11.49-12.65,11.49-15.68,0-5.67-1.3-8.77-2.94-10.87" fill="#0f0915"/>
      <path d="M563.53,305.79c-.14,8.07,3.18,14,11.2,14,4.72,0,8.51-2.49,9.13-8.08h7.31a13.32,13.32,0,0,1-3.35,8.16c-1.7,1.94-5.58,5.2-13.39,5.2-12.29,0-18.11-7.6-18.11-20,0-7.67,1.57-14,7.69-18.31,3.72-2.64,8.38-2.89,10.62-2.89,17.47,0,17.08,15.46,16.93,21.83Zm20.58-5.12c.07-3.72-.63-11.5-9.64-11.5-4.73,0-10.46,2.88-10.61,11.5Z" fill="#0f0915"/>
      <path d="M624.4,267.92h20c6.81,0,10.64.69,14.11,4.11a13.23,13.23,0,0,1,4,10c0,9.22-6.76,11.63-9.44,12.64,3.23.93,11.16,3.27,11.16,14a15,15,0,0,1-6.74,12.72c-3.9,2.57-8.2,2.57-12.64,2.57H624.4Zm7.53,23.66h10.86c2.62,0,11.66,0,11.66-8.85,0-8.45-7.07-8.45-11.35-8.45H631.93Zm0,26.09h13.28c6.13,0,11-3.28,11-9.71,0-5.59-3.86-9.71-10.7-9.71H631.93Z" fill="#0f0915"/>
      <path d="M680.05,305.79c-.13,8.07,3.18,14,11.17,14,4.75,0,8.56-2.49,9.18-8.08h7.3a13.38,13.38,0,0,1-3.35,8.16c-1.72,1.94-5.58,5.2-13.41,5.2-12.28,0-18.09-7.6-18.09-20,0-7.67,1.54-14,7.67-18.31,3.72-2.64,8.38-2.89,10.64-2.89,17.47,0,17.06,15.46,16.91,21.83Zm20.58-5.12c.07-3.72-.64-11.5-9.62-11.5-4.75,0-10.49,2.88-10.66,11.5Z" fill="#0f0915"/>
      <rect x="718.94" y="267.99" width="7.31" height="55.96" fill="#0f0915"/>
      <path d="M747.35,327c.32,4.32,2.17,7.59,9.09,7.59,10.2,0,10.31-7.38,10.31-17.91-3.11,6.43-10.46,6.58-12.8,6.58-3.55,0-8.67-.77-12-4.81s-4.39-9.15-4.39-14.37c0-13.18,7.76-19.62,17.3-19.62,7.84,0,10.7,3.85,12.27,5.89l.08-5.34h7l-.17,7.05,0,24.37c0,9.4-.32,13.19-1.87,16.14-3.25,6.22-10.87,7-16.24,7-15.58,0-16.06-7.29-16.36-12.55Zm17-13.06c1.54-2,2.64-4.1,2.64-11.17,0-4.9-1.1-7.68-3-9.71a11.59,11.59,0,0,0-8.4-3.42c-9.24,0-10.47,9.34-10.47,14.29,0,6,1.79,13.89,10.72,13.89,4.28,0,6.75-1.56,8.54-3.88" fill="#0f0915"/>
      <path d="M787.12,268.05h8.77v8h-8.77ZM787.9,285h7.26V324H787.9Z" fill="#0f0915"/>
      <path d="M843.63,285c-.09,1.53-.15,4.95-.15,6.35v47.59h-7.39V319.6a10.49,10.49,0,0,1-3.18,3.35,15.75,15.75,0,0,1-8.77,2.49c-9.49,0-17.77-6.68-17.77-21.13s8.13-19.95,16.38-19.95c7.9,0,11.54,4.36,13.26,7.07l.21-6.43Zm-19,4.8c-10.49,0-10.62,11-10.62,14.05,0,2.79.35,8.45,3.14,12.41,1.74,2.5,4.75,3.81,8.42,3.81,9,0,10.79-7.07,10.79-14.83,0-3.17,0-15.44-11.73-15.44" fill="#0f0915"/>
      <path d="M863.51,285v25.06c0,3.8.84,8.61,8.29,8.61,3.65,0,7.07-1.24,9.18-4.35,1.63-2.32,1.63-5.35,1.63-7.29V285h7.52v31.65c0,.78.15,5.12.2,7.3h-7.59l-.13-6.68c-1.42,2.72-4.06,7.06-12.46,7.06-9.61,0-14.1-5.51-14.1-13.19V285Z" fill="#0f0915"/>
      <path d="M908.68,305.79c-.15,8.07,3.18,14,11.17,14,4.73,0,8.53-2.49,9.17-8.08h7.29a13.32,13.32,0,0,1-3.35,8.16c-1.7,1.94-5.57,5.2-13.43,5.2-12.25,0-18.07-7.6-18.07-20,0-7.67,1.54-14,7.69-18.31,3.71-2.64,8.38-2.89,10.61-2.89,17.47,0,17.07,15.46,16.93,21.83Zm20.56-5.12c.08-3.72-.62-11.5-9.61-11.5-4.74,0-10.48,2.88-10.65,11.5Z" fill="#0f0915"/>
    </g>
  </g>
</svg>
